Lab 1: Census Data Quality for Policy Decisions – Arzoo Gupta - MUSA 5080 Portfolio
…
county_level <- get_acs( state = my_state, geography = "county", 
                     variables = c( med_hh_inc = "B19013_001", tot_pop = "B01003_001"), year = 2022, survey = "acs5", output = "wide")

# Clean the county names to remove state name and "County" 
county_level <- county_level %>% 
  mutate(county = str_remove(NAME, ", Louisiana"), 
county = str_remove( county, " Parish") )

# Hint: use mutate() with str_remove()

# Display the first few rows
county_level

# A tibble: 64 × 7
   GEOID NAME                   med_hh_incE med_hh_incM tot_popE tot_popM county
   <chr> <chr>                        <dbl>       <dbl>    <dbl>    <dbl> <chr> 
 1 22001 Acadia Parish, Louisi…       44977        2841    57674       NA Acadia
 2 22003 Allen Parish, Louisia…       52755        6411    22798       NA Allen 
 3 22005 Ascension Parish, Lou…       93800        3514   126973       NA Ascen…
 4 22007 Assumption Parish, Lo…       47023        3781    21067       NA Assum…
 5 22009 Avoyelles Parish, Lou…       38696        5175    39529       NA Avoye…
 6 22011 Beauregard Parish, Lo…       68525        6225    36553       NA Beaur…
 7 22013 Bienville Parish, Lou…       34268        3054    12958       NA Bienv…
 8 22015 Bossier Parish, Louis…       64598        3122   128877       NA Bossi…
 9 22017 Caddo Parish, Louisia…       47572        2032   236259       NA Caddo 
10 22019 Calcasieu Parish, Lou…       64370        3249   210770       NA Calca…
# ℹ 54 more rows
…
